\relax 
\@writefile{toc}{\contentsline {section}{\numberline {1}問1}{2}}
\newlabel{srcQ1}{{1}{2}}
\@writefile{lol}{\contentsline {lstlisting}{\numberline {1}ソースコード}{2}}
\@writefile{toc}{\contentsline {section}{\numberline {2}問2}{3}}
\newlabel{srcQ2}{{2}{3}}
\@writefile{lol}{\contentsline {lstlisting}{\numberline {2}ソースコード}{3}}
\@writefile{toc}{\contentsline {section}{\numberline {3}問3}{5}}
\newlabel{srcQ3}{{3}{5}}
\@writefile{lol}{\contentsline {lstlisting}{\numberline {3}ソースコード}{5}}
\@writefile{toc}{\contentsline {section}{\numberline {4}問4}{6}}
\newlabel{srcQ4}{{4}{6}}
\@writefile{lol}{\contentsline {lstlisting}{\numberline {4}ソースコード(a)}{6}}
\newlabel{srcQ4'}{{5}{7}}
\@writefile{lol}{\contentsline {lstlisting}{\numberline {5}ソースコード(b)}{7}}
\newlabel{hdrQ4}{{6}{9}}
\@writefile{lol}{\contentsline {lstlisting}{\numberline {6}ヘッダ}{9}}
