^D:\GOOGLEDRIVE\SYSTEMPROGRAM\SYSTEMPROGRAM\Q3\DEBUG\SOURCE.OBJ
/OUT:"D:\GOOGLEDRIVE\SYSTEMPROGRAM\SYSTEMPROGRAM\DEBUG\Q3.EXE" /INCREMENTAL /NOLOGO kernel32.lib user32.lib gdi32.lib winspool.lib comdlg32.lib advapi32.lib shell32.lib ole32.lib oleaut32.lib uuid.lib odbc32.lib odbccp32.lib /MANIFEST /MANIFESTUAC:"level='asInvoker' uiAccess='false'" /manifest:embed /DEBUG /PDB:"D:\GOOGLEDRIVE\SYSTEMPROGRAM\SYSTEMPROGRAM\DEBUG\Q3.PDB" /SUBSYSTEM:CONSOLE /TLBID:1 /DYNAMICBASE /NXCOMPAT /IMPLIB:"D:\GOOGLEDRIVE\SYSTEMPROGRAM\SYSTEMPROGRAM\DEBUG\Q3.LIB" /MACHINE:X86 DEBUG\SOURCE.OBJ
^D:\GOOGLEDRIVE\SYSTEMPROGRAM\SYSTEMPROGRAM\Q3\DEBUG\SOURCE.OBJ|D:\GOOGLEDRIVE\SYSTEMPROGRAM\SYSTEMPROGRAM\Q3\DEBUG\SOURCE1.OBJ
/OUT:"D:\GOOGLEDRIVE\SYSTEMPROGRAM\SYSTEMPROGRAM\DEBUG\Q3.EXE" /INCREMENTAL /NOLOGO kernel32.lib user32.lib gdi32.lib winspool.lib comdlg32.lib advapi32.lib shell32.lib ole32.lib oleaut32.lib uuid.lib odbc32.lib odbccp32.lib /MANIFEST /MANIFESTUAC:"level='asInvoker' uiAccess='false'" /manifest:embed /DEBUG /PDB:"D:\GOOGLEDRIVE\SYSTEMPROGRAM\SYSTEMPROGRAM\DEBUG\Q3.PDB" /SUBSYSTEM:CONSOLE /TLBID:1 /DYNAMICBASE /NXCOMPAT /IMPLIB:"D:\GOOGLEDRIVE\SYSTEMPROGRAM\SYSTEMPROGRAM\DEBUG\Q3.LIB" /MACHINE:X86 DEBUG\SOURCE.OBJDEBUG\SOURCE1.OBJ
^D:\GOOGLEDRIVE\SYSTEMPROGRAM\HOMEWORK (JAN)\Q3\DEBUG\SOURCE.OBJ
/OUT:"D:\GOOGLEDRIVE\SYSTEMPROGRAM\HOMEWORK (JAN)\DEBUG\Q3.EXE" /INCREMENTAL /NOLOGO kernel32.lib user32.lib gdi32.lib winspool.lib comdlg32.lib advapi32.lib shell32.lib ole32.lib oleaut32.lib uuid.lib odbc32.lib odbccp32.lib /MANIFEST /MANIFESTUAC:"level='asInvoker' uiAccess='false'" /manifest:embed /DEBUG /PDB:"D:\GOOGLEDRIVE\SYSTEMPROGRAM\HOMEWORK (JAN)\DEBUG\Q3.PDB" /SUBSYSTEM:CONSOLE /TLBID:1 /DYNAMICBASE /NXCOMPAT /IMPLIB:"D:\GOOGLEDRIVE\SYSTEMPROGRAM\HOMEWORK (JAN)\DEBUG\Q3.LIB" /MACHINE:X86 DEBUG\SOURCE.OBJ
