^D:\GOOGLEDRIVE\SYSTEMPROGRAM\SYSTEMPROGRAM\SYSTEMPROGRAM\Q5\FRUCTION.C|D:\GOOGLEDRIVE\SYSTEMPROGRAM\SYSTEMPROGRAM\SYSTEMPROGRAM\Q5\SOURCE.C
D:\GOOGLEDRIVE\SYSTEMPROGRAM\SYSTEMPROGRAM\SYSTEMPROGRAM\Q5\DEBUG\VC120.PDB
D:\GOOGLEDRIVE\SYSTEMPROGRAM\SYSTEMPROGRAM\SYSTEMPROGRAM\Q5\DEBUG\VC120.IDB
D:\GOOGLEDRIVE\SYSTEMPROGRAM\SYSTEMPROGRAM\SYSTEMPROGRAM\Q5\DEBUG\FRUCTION.OBJ
^D:\GOOGLEDRIVE\SYSTEMPROGRAM\SYSTEMPROGRAM\SYSTEMPROGRAM\Q5\FRUCTION.C
D:\GOOGLEDRIVE\SYSTEMPROGRAM\SYSTEMPROGRAM\SYSTEMPROGRAM\Q5\DEBUG\VC120.PDB
^D:\GOOGLEDRIVE\SYSTEMPROGRAM\SYSTEMPROGRAM\SYSTEMPROGRAM\Q5\SOURCE.C
D:\GOOGLEDRIVE\SYSTEMPROGRAM\SYSTEMPROGRAM\SYSTEMPROGRAM\Q5\DEBUG\VC120.PDB
D:\GOOGLEDRIVE\SYSTEMPROGRAM\SYSTEMPROGRAM\SYSTEMPROGRAM\Q5\DEBUG\VC120.IDB
D:\GOOGLEDRIVE\SYSTEMPROGRAM\SYSTEMPROGRAM\SYSTEMPROGRAM\Q5\DEBUG\SOURCE.OBJ
^D:\GOOGLEDRIVE\SYSTEMPROGRAM\HOMEWORK (JAN)\Q5\FRUCTION.C|D:\GOOGLEDRIVE\SYSTEMPROGRAM\HOMEWORK (JAN)\Q5\SOURCE.C
D:\GOOGLEDRIVE\SYSTEMPROGRAM\HOMEWORK (JAN)\Q5\DEBUG\VC120.PDB
D:\GOOGLEDRIVE\SYSTEMPROGRAM\HOMEWORK (JAN)\Q5\DEBUG\VC120.IDB
D:\GOOGLEDRIVE\SYSTEMPROGRAM\HOMEWORK (JAN)\Q5\DEBUG\FRUCTION.OBJ
D:\GOOGLEDRIVE\SYSTEMPROGRAM\HOMEWORK (JAN)\Q5\DEBUG\SOURCE.OBJ
^D:\GOOGLEDRIVE\SYSTEMPROGRAM\HOMEWORK (JAN)\Q5\FRUCTION.C
D:\GOOGLEDRIVE\SYSTEMPROGRAM\HOMEWORK (JAN)\Q5\DEBUG\VC120.PDB
^D:\GOOGLEDRIVE\SYSTEMPROGRAM\HOMEWORK (JAN)\Q5\SOURCE.C
D:\GOOGLEDRIVE\SYSTEMPROGRAM\HOMEWORK (JAN)\Q5\DEBUG\VC120.PDB
