^D:\GOOGLEDRIVE\SYSTEMPROGRAM\SYSTEMPROGRAM\SYSTEMPROGRAM\Q5\DEBUG\FRUCTION.OBJ|D:\GOOGLEDRIVE\SYSTEMPROGRAM\SYSTEMPROGRAM\SYSTEMPROGRAM\Q5\DEBUG\SOURCE.OBJ
D:\GOOGLEDRIVE\SYSTEMPROGRAM\SYSTEMPROGRAM\SYSTEMPROGRAM\DEBUG\Q5.ILK
D:\GOOGLEDRIVE\SYSTEMPROGRAM\SYSTEMPROGRAM\SYSTEMPROGRAM\DEBUG\Q5.EXE
D:\GOOGLEDRIVE\SYSTEMPROGRAM\SYSTEMPROGRAM\SYSTEMPROGRAM\DEBUG\Q5.PDB
^D:\GOOGLEDRIVE\SYSTEMPROGRAM\HOMEWORK (JAN)\Q5\DEBUG\FRUCTION.OBJ|D:\GOOGLEDRIVE\SYSTEMPROGRAM\HOMEWORK (JAN)\Q5\DEBUG\SOURCE.OBJ
D:\GOOGLEDRIVE\SYSTEMPROGRAM\HOMEWORK (JAN)\DEBUG\Q5.ILK
D:\GOOGLEDRIVE\SYSTEMPROGRAM\HOMEWORK (JAN)\DEBUG\Q5.EXE
D:\GOOGLEDRIVE\SYSTEMPROGRAM\HOMEWORK (JAN)\DEBUG\Q5.PDB
