^D:\GOOGLEDRIVE\SYSTEMPROGRAM\SYSTEMPROGRAM\SYSTEMPROGRAM\Q４\SOURCE1.C
D:\GOOGLEDRIVE\SYSTEMPROGRAM\SYSTEMPROGRAM\SYSTEMPROGRAM\Q４\HEADER.H
C:\PROGRAM FILES (X86)\MICROSOFT VISUAL STUDIO 12.0\VC\INCLUDE\STDIO.H
C:\PROGRAM FILES (X86)\MICROSOFT VISUAL STUDIO 12.0\VC\INCLUDE\CRTDEFS.H
C:\PROGRAM FILES (X86)\MICROSOFT VISUAL STUDIO 12.0\VC\INCLUDE\SAL.H
C:\PROGRAM FILES (X86)\MICROSOFT VISUAL STUDIO 12.0\VC\INCLUDE\CONCURRENCYSAL.H
C:\PROGRAM FILES (X86)\MICROSOFT VISUAL STUDIO 12.0\VC\INCLUDE\VADEFS.H
C:\PROGRAM FILES (X86)\MICROSOFT VISUAL STUDIO 12.0\VC\INCLUDE\SWPRINTF.INL
C:\PROGRAM FILES (X86)\MICROSOFT VISUAL STUDIO 12.0\VC\INCLUDE\CTYPE.H
C:\PROGRAM FILES (X86)\MICROSOFT VISUAL STUDIO 12.0\VC\INCLUDE\STDLIB.H
C:\PROGRAM FILES (X86)\MICROSOFT VISUAL STUDIO 12.0\VC\INCLUDE\LIMITS.H
^D:\GOOGLEDRIVE\SYSTEMPROGRAM\SYSTEMPROGRAM\SYSTEMPROGRAM\Q４\SOURCE.C
D:\GOOGLEDRIVE\SYSTEMPROGRAM\SYSTEMPROGRAM\SYSTEMPROGRAM\Q４\HEADER.H
C:\PROGRAM FILES (X86)\MICROSOFT VISUAL STUDIO 12.0\VC\INCLUDE\STDIO.H
C:\PROGRAM FILES (X86)\MICROSOFT VISUAL STUDIO 12.0\VC\INCLUDE\CRTDEFS.H
C:\PROGRAM FILES (X86)\MICROSOFT VISUAL STUDIO 12.0\VC\INCLUDE\SAL.H
C:\PROGRAM FILES (X86)\MICROSOFT VISUAL STUDIO 12.0\VC\INCLUDE\CONCURRENCYSAL.H
C:\PROGRAM FILES (X86)\MICROSOFT VISUAL STUDIO 12.0\VC\INCLUDE\VADEFS.H
C:\PROGRAM FILES (X86)\MICROSOFT VISUAL STUDIO 12.0\VC\INCLUDE\SWPRINTF.INL
C:\PROGRAM FILES (X86)\MICROSOFT VISUAL STUDIO 12.0\VC\INCLUDE\CTYPE.H
C:\PROGRAM FILES (X86)\MICROSOFT VISUAL STUDIO 12.0\VC\INCLUDE\STDLIB.H
C:\PROGRAM FILES (X86)\MICROSOFT VISUAL STUDIO 12.0\VC\INCLUDE\LIMITS.H
^D:\GOOGLEDRIVE\SYSTEMPROGRAM\HOMEWORK (JAN)\Q４\SOURCE1.C
D:\GOOGLEDRIVE\SYSTEMPROGRAM\HOMEWORK (JAN)\Q４\HEADER.H
C:\PROGRAM FILES (X86)\MICROSOFT VISUAL STUDIO 12.0\VC\INCLUDE\STDIO.H
C:\PROGRAM FILES (X86)\MICROSOFT VISUAL STUDIO 12.0\VC\INCLUDE\CRTDEFS.H
C:\PROGRAM FILES (X86)\MICROSOFT VISUAL STUDIO 12.0\VC\INCLUDE\SAL.H
C:\PROGRAM FILES (X86)\MICROSOFT VISUAL STUDIO 12.0\VC\INCLUDE\CONCURRENCYSAL.H
C:\PROGRAM FILES (X86)\MICROSOFT VISUAL STUDIO 12.0\VC\INCLUDE\VADEFS.H
C:\PROGRAM FILES (X86)\MICROSOFT VISUAL STUDIO 12.0\VC\INCLUDE\SWPRINTF.INL
C:\PROGRAM FILES (X86)\MICROSOFT VISUAL STUDIO 12.0\VC\INCLUDE\CTYPE.H
C:\PROGRAM FILES (X86)\MICROSOFT VISUAL STUDIO 12.0\VC\INCLUDE\STDLIB.H
C:\PROGRAM FILES (X86)\MICROSOFT VISUAL STUDIO 12.0\VC\INCLUDE\LIMITS.H
^D:\GOOGLEDRIVE\SYSTEMPROGRAM\HOMEWORK (JAN)\Q４\SOURCE.C
D:\GOOGLEDRIVE\SYSTEMPROGRAM\HOMEWORK (JAN)\Q４\HEADER.H
C:\PROGRAM FILES (X86)\MICROSOFT VISUAL STUDIO 12.0\VC\INCLUDE\STDIO.H
C:\PROGRAM FILES (X86)\MICROSOFT VISUAL STUDIO 12.0\VC\INCLUDE\CRTDEFS.H
C:\PROGRAM FILES (X86)\MICROSOFT VISUAL STUDIO 12.0\VC\INCLUDE\SAL.H
C:\PROGRAM FILES (X86)\MICROSOFT VISUAL STUDIO 12.0\VC\INCLUDE\CONCURRENCYSAL.H
C:\PROGRAM FILES (X86)\MICROSOFT VISUAL STUDIO 12.0\VC\INCLUDE\VADEFS.H
C:\PROGRAM FILES (X86)\MICROSOFT VISUAL STUDIO 12.0\VC\INCLUDE\SWPRINTF.INL
C:\PROGRAM FILES (X86)\MICROSOFT VISUAL STUDIO 12.0\VC\INCLUDE\CTYPE.H
C:\PROGRAM FILES (X86)\MICROSOFT VISUAL STUDIO 12.0\VC\INCLUDE\STDLIB.H
C:\PROGRAM FILES (X86)\MICROSOFT VISUAL STUDIO 12.0\VC\INCLUDE\LIMITS.H
